RISC-V-Base/cpu.vcd
$version Generated by VerilatedVcd $end
$date Fri Dec  2 17:42:35 2022 $end
$timescale 1ps $end

 $scope module TOP $end
  $var wire 32 X a0_output [31:0] $end
  $var wire  1 V clk $end
  $var wire 32 [ interm_immop [31:0] $end
  $var wire 32 ^ interm_ins [31:0] $end
  $var wire 32 ] prog_addr [31:0] $end
  $var wire  5 \ rd_add [4:0] $end
  $var wire 32 Y rf_dout1 [31:0] $end
  $var wire 32 Z rf_dout2 [31:0] $end
  $var wire 32 _ rout_test [31:0] $end
  $var wire  1 W rst $end
  $scope module cpu $end
   $var wire 32 d WIDTH [31:0] $end
   $var wire 32 X a0_output [31:0] $end
   $var wire  1 V clk $end
   $var wire  3 L inter_addrmode [2:0] $end
   $var wire  3 F interm_aluctrl [2:0] $end
   $var wire 32 E interm_aluout [31:0] $end
   $var wire  1 H interm_alusrc $end
   $var wire  1 I interm_eq $end
   $var wire 32 [ interm_immop [31:0] $end
   $var wire  3 G interm_immsrc [2:0] $end
   $var wire 32 ^ interm_ins [31:0] $end
   $var wire  1 M interm_memwrite $end
   $var wire  1 J interm_pcsrc $end
   $var wire  1 N interm_resultsrc $end
   $var wire 32 ] prog_addr [31:0] $end
   $var wire  5 \ rd_add [4:0] $end
   $var wire 32 ` result [31:0] $end
   $var wire 32 Y rf_dout1 [31:0] $end
   $var wire 32 Z rf_dout2 [31:0] $end
   $var wire 32 _ rout_test [31:0] $end
   $var wire  1 W rst $end
   $var wire  1 K write_en $end
   $scope module alu $end
    $var wire 32 d D_WIDTH [31:0] $end
    $var wire  3 F aluctrl [2:0] $end
    $var wire 32 Y aluop1 [31:0] $end
    $var wire 32 O aluop2 [31:0] $end
    $var wire 32 E aluout [31:0] $end
    $var wire  1 H alusrc $end
    $var wire  1 I eq $end
    $var wire 32 [ immop [31:0] $end
    $var wire 32 Z regop2 [31:0] $end
   $upscope $end
   $scope module ctrlunit $end
    $var wire  3 L addrmode [2:0] $end
    $var wire  3 F aluctrl [2:0] $end
    $var wire  2 S aluop [1:0] $end
    $var wire  1 H alusrc $end
    $var wire  1 I eq $end
    $var wire  3 Q funct3 [2:0] $end
    $var wire  7 R funct7 [31:25] $end
    $var wire  3 G immsrc [2:0] $end
    $var wire 32 ^ instruction [31:0] $end
    $var wire  1 M memwrite $end
    $var wire  7 P opcode [6:0] $end
    $var wire  1 J pcsrc $end
    $var wire  1 K regwrite $end
    $var wire  1 N resultsrc $end
   $upscope $end
   $scope module programcounter $end
    $var wire 32 d WIDTH [31:0] $end
    $var wire 32 U branch_pc [31:0] $end
    $var wire  1 V clk $end
    $var wire 32 [ immop [31:0] $end
    $var wire 32 T next_pc [31:0] $end
    $var wire 32 ] pc [31:0] $end
    $var wire  1 J pcsrc $end
    $var wire  1 W rst $end
   $upscope $end
   $scope module programmem $end
    $var wire 32 d A_WIDTH [31:0] $end
    $var wire 32 e D_WIDTH [31:0] $end
    $var wire 32 ] address [31:0] $end
    $var wire 32 ^ dout [31:0] $end
   $upscope $end
   $scope module ram $end
    $var wire 32 d A_WIDTH [31:0] $end
    $var wire 32 e D_WIDTH [31:0] $end
    $var wire 32 E address [31:0] $end
    $var wire  3 L bytes [2:0] $end
    $var wire  1 V clk $end
    $var wire 32 _ dout [31:0] $end
    $var wire 32 Z wd [31:0] $end
    $var wire  1 M we $end
    $scope module unnamedblk1 $end
     $var wire 32 # i [31:0] $end
    $upscope $end
   $upscope $end
   $scope module registerfile $end
    $var wire 32 f A_WIDTH [31:0] $end
    $var wire 32 d D_WIDTH [31:0] $end
    $var wire 32 X a0 [31:0] $end
    $var wire  5 a ad1 [4:0] $end
    $var wire  5 b ad2 [4:0] $end
    $var wire  5 c ad3 [4:0] $end
    $var wire  1 V clk $end
    $var wire 32 Y rd1 [31:0] $end
    $var wire 32 Z rd2 [31:0] $end
    $var wire 32 % rf_array[0] [31:0] $end
    $var wire 32 / rf_array[10] [31:0] $end
    $var wire 32 0 rf_array[11] [31:0] $end
    $var wire 32 1 rf_array[12] [31:0] $end
    $var wire 32 2 rf_array[13] [31:0] $end
    $var wire 32 3 rf_array[14] [31:0] $end
    $var wire 32 4 rf_array[15] [31:0] $end
    $var wire 32 5 rf_array[16] [31:0] $end
    $var wire 32 6 rf_array[17] [31:0] $end
    $var wire 32 7 rf_array[18] [31:0] $end
    $var wire 32 8 rf_array[19] [31:0] $end
    $var wire 32 & rf_array[1] [31:0] $end
    $var wire 32 9 rf_array[20] [31:0] $end
    $var wire 32 : rf_array[21] [31:0] $end
    $var wire 32 ; rf_array[22] [31:0] $end
    $var wire 32 < rf_array[23] [31:0] $end
    $var wire 32 = rf_array[24] [31:0] $end
    $var wire 32 > rf_array[25] [31:0] $end
    $var wire 32 ? rf_array[26] [31:0] $end
    $var wire 32 @ rf_array[27] [31:0] $end
    $var wire 32 A rf_array[28] [31:0] $end
    $var wire 32 B rf_array[29] [31:0] $end
    $var wire 32 ' rf_array[2] [31:0] $end
    $var wire 32 C rf_array[30] [31:0] $end
    $var wire 32 D rf_array[31] [31:0] $end
    $var wire 32 ( rf_array[3] [31:0] $end
    $var wire 32 ) rf_array[4] [31:0] $end
    $var wire 32 * rf_array[5] [31:0] $end
    $var wire 32 + rf_array[6] [31:0] $end
    $var wire 32 , rf_array[7] [31:0] $end
    $var wire 32 - rf_array[8] [31:0] $end
    $var wire 32 . rf_array[9] [31:0] $end
    $var wire 32 ` wd3 [31:0] $end
    $var wire  1 K we3 $end
    $scope module unnamedblk1 $end
     $var wire 32 $ i [31:0] $end
    $upscope $end
   $upscope $end
   $scope module sgnextend $end
    $var wire 32 [ immop [31:0] $end
    $var wire  3 G immsrc [2:0] $end
    $var wire 32 ^ instruction [31:0] $end
   $upscope $end
  $upscope $end
 $upscope $end
$enddefinitions $end


#0
b00000000000000000000000000000000 #
b00000000000000000000000000000000 $
b00000000000000000000000000000000 %
b00000000000000000000000000000000 &
b00000000000000000000000000000000 '
b00000000000000000000000000000000 (
b00000000000000000000000000000000 )
b00000000000000000000000000000000 *
b00000000000000000000000000000000 +
b00000000000000000000000000000000 ,
b00000000000000000000000000000000 -
b00000000000000000000000000000000 .
b00000000000000000000000000000000 /
b00000000000000000000000000000000 0
b00000000000000000000000000000000 1
b00000000000000000000000000000000 2
b00000000000000000000000000000000 3
b00000000000000000000000000000000 4
b00000000000000000000000000000000 5
b00000000000000000000000000000000 6
b00000000000000000000000000000000 7
b00000000000000000000000000000000 8
b00000000000000000000000000000000 9
b00000000000000000000000000000000 :
b00000000000000000000000000000000 ;
b00000000000000000000000000000000 <
b00000000000000000000000000000000 =
b00000000000000000000000000000000 >
b00000000000000000000000000000000 ?
b00000000000000000000000000000000 @
b00000000000000000000000000000000 A
b00000000000000000000000000000000 B
b00000000000000000000000000000000 C
b00000000000000000000000000000000 D
b00000000000000000000000000000000 E
b000 F
b000 G
0H
0I
0J
0K
b000 L
0M
0N
b00000000000000000000000000000000 O
b0000000 P
b000 Q
b0000000 R
b00 S
b00000000000000000000000000000000 T
b00000000000000000000000000000000 U
0V
0W
b00000000000000000000000000000000 X
b00000000000000000000000000000000 Y
b00000000000000000000000000000000 Z
b00000000000000000000000000000000 [
b00000 \
b00000000000000000000000000000000 ]
b00000000000000000000000000000000 ^
b00000000000000000000000000000000 _
b00000000000000000000000000000000 `
b00000 a
b00000 b
b00000 c
b00000000000000000000000000100000 d
b00000000000000000000000000001000 e
b00000000000000000000000000000101 f
#1
b00000000000000110000110101000001 #
b00000000000000000000000000100000 $
b00000000000000000000000011111111 E
1H
1K
b00000000000000000000000011111111 O
b0010011 P
b11 S
b00000000000000000000000000000100 T
b00000000000000000000000011111111 U
1V
b00000000000000000000000011111111 [
b00001111111100000000001100010011 ^
b00000000000000000000000011111111 `
b11111 b
b00110 c
#2
0V
#3
b00000000000000000000000011111111 +
b00000000000000000000000000000000 E
1I
b00000000000000000000000000000000 O
b00000000000000000000000000001000 T
b00000000000000000000000000000100 U
1V
b00000000000000000000000000000000 [
b00000000000000000000000000000100 ]
b00000000000000000000010100010011 ^
b00000000000000000000000000000000 `
b00000 b
b01010 c
#4
0V
#5
b00000000000000000000000011110000 E
0I
b00000000000000000000000011110000 O
b00000000000000000000000000001100 T
b00000000000000000000000011111000 U
1V
b00000000000000000000000011110000 [
b00000000000000000000000000001000 ]
b00001111000000000000010110010011 ^
b00000000000000000000000011110000 `
b10000 b
b01011 c
#6
0V
#7
b00000000000000000000000011110000 0
b00000000000000000000000000000000 O
b00000000000000000000000000010000 T
b00000000000000000000000000001100 U
1V
b00000000000000000000000011110000 Y
b00000000000000000000000000000000 [
b01011 \
b00000000000000000000000000001100 ]
b00000000000001011000010100010011 ^
b01011 a
b00000 b
b01010 c
#8
0V
#9
b00000000000000000000000011110000 /
b00000000000000000000000011110001 E
b00000000000000000000000000000001 O
b00000000000000000000000000010100 T
b00000000000000000000000000010001 U
1V
b00000000000000000000000011110000 X
b00000000000000000000000000000001 [
b00000000000000000000000000010000 ]
b00000000000101011000010110010011 ^
b00000000000000000000000011110001 `
b00001 b
b01011 c
#10
0V
#11
b00000000000000000000000011110001 0
b00000000000000000000000000000000 E
b111 F
b011 G
0H
1J
0K
b00000000000000000000000011111111 O
b1100011 P
b001 Q
b01 S
b00000000000000000000000000001100 T
b00000000000000000000000000001100 U
1V
b00000000000000000000000011110001 Y
b00000000000000000000000011111111 Z
b11111111111111111111111111111000 [
b00000000000000000000000000010100 ]
b11111110011001011001100011100011 ^
b00000000000000000000000000000000 `
b00110 b
b10001 c
#12
0V
#13
b00000000000000000000000011110001 E
b000 F
b000 G
1H
0J
1K
b00000000000000000000000000000000 O
b0010011 P
b000 Q
b11 S
b00000000000000000000000000010000 T
1V
b00000000000000000000000000000000 Z
b00000000000000000000000000000000 [
b00000000000000000000000000001100 ]
b00000000000001011000010100010011 ^
b00000000000000000000000011110001 `
b00000 b
b01010 c
#14
0V
#15
b00000000000000000000000011110001 /
b00000000000000000000000011110010 E
b00000000000000000000000000000001 O
b00000000000000000000000000010100 T
b00000000000000000000000000010001 U
1V
b00000000000000000000000011110001 X
b00000000000000000000000000000001 [
b00000000000000000000000000010000 ]
b00000000000101011000010110010011 ^
b00000000000000000000000011110010 `
b00001 b
b01011 c
#16
0V
#17
b00000000000000000000000011110010 0
b00000000000000000000000000000000 E
b111 F
b011 G
0H
1J
0K
b00000000000000000000000011111111 O
b1100011 P
b001 Q
b01 S
b00000000000000000000000000001100 T
b00000000000000000000000000001100 U
1V
b00000000000000000000000011110010 Y
b00000000000000000000000011111111 Z
b11111111111111111111111111111000 [
b00000000000000000000000000010100 ]
b11111110011001011001100011100011 ^
b00000000000000000000000000000000 `
b00110 b
b10001 c
#18
0V
#19
b00000000000000000000000011110010 E
b000 F
b000 G
1H
0J
1K
b00000000000000000000000000000000 O
b0010011 P
b000 Q
b11 S
b00000000000000000000000000010000 T
1V
b00000000000000000000000000000000 Z
b00000000000000000000000000000000 [
b00000000000000000000000000001100 ]
b00000000000001011000010100010011 ^
b00000000000000000000000011110010 `
b00000 b
b01010 c
#20
0V
#21
b00000000000000000000000011110010 /
b00000000000000000000000011110011 E
b00000000000000000000000000000001 O
b00000000000000000000000000010100 T
b00000000000000000000000000010001 U
1V
b00000000000000000000000011110010 X
b00000000000000000000000000000001 [
b00000000000000000000000000010000 ]
b00000000000101011000010110010011 ^
b00000000000000000000000011110011 `
b00001 b
b01011 c
#22
0V
#23
b00000000000000000000000011110011 0
b00000000000000000000000000000000 E
b111 F
b011 G
0H
1J
0K
b00000000000000000000000011111111 O
b1100011 P
b001 Q
b01 S
b00000000000000000000000000001100 T
b00000000000000000000000000001100 U
1V
b00000000000000000000000011110011 Y
b00000000000000000000000011111111 Z
b11111111111111111111111111111000 [
b00000000000000000000000000010100 ]
b11111110011001011001100011100011 ^
b00000000000000000000000000000000 `
b00110 b
b10001 c
#24
0V
#25
b00000000000000000000000011110011 E
b000 F
b000 G
1H
0J
1K
b00000000000000000000000000000000 O
b0010011 P
b000 Q
b11 S
b00000000000000000000000000010000 T
1V
b00000000000000000000000000000000 Z
b00000000000000000000000000000000 [
b00000000000000000000000000001100 ]
b00000000000001011000010100010011 ^
b00000000000000000000000011110011 `
b00000 b
b01010 c
#26
0V
#27
b00000000000000000000000011110011 /
b00000000000000000000000011110100 E
b00000000000000000000000000000001 O
b00000000000000000000000000010100 T
b00000000000000000000000000010001 U
1V
b00000000000000000000000011110011 X
b00000000000000000000000000000001 [
b00000000000000000000000000010000 ]
b00000000000101011000010110010011 ^
b00000000000000000000000011110100 `
b00001 b
b01011 c
#28
0V
#29
b00000000000000000000000011110100 0
b00000000000000000000000000000000 E
b111 F
b011 G
0H
1J
0K
b00000000000000000000000011111111 O
b1100011 P
b001 Q
b01 S
b00000000000000000000000000001100 T
b00000000000000000000000000001100 U
1V
b00000000000000000000000011110100 Y
b00000000000000000000000011111111 Z
b11111111111111111111111111111000 [
b00000000000000000000000000010100 ]
b11111110011001011001100011100011 ^
b00000000000000000000000000000000 `
b00110 b
b10001 c
#30
0V
#31
b00000000000000000000000011110100 E
b000 F
b000 G
1H
0J
1K
b00000000000000000000000000000000 O
b0010011 P
b000 Q
b11 S
b00000000000000000000000000010000 T
1V
b00000000000000000000000000000000 Z
b00000000000000000000000000000000 [
b00000000000000000000000000001100 ]
b00000000000001011000010100010011 ^
b00000000000000000000000011110100 `
b00000 b
b01010 c
#32
0V
#33
b00000000000000000000000011110100 /
b00000000000000000000000011110101 E
b00000000000000000000000000000001 O
b00000000000000000000000000010100 T
b00000000000000000000000000010001 U
1V
b00000000000000000000000011110100 X
b00000000000000000000000000000001 [
b00000000000000000000000000010000 ]
b00000000000101011000010110010011 ^
b00000000000000000000000011110101 `
b00001 b
b01011 c
#34
0V
#35
b00000000000000000000000011110101 0
b00000000000000000000000000000000 E
b111 F
b011 G
0H
1J
0K
b00000000000000000000000011111111 O
b1100011 P
b001 Q
b01 S
b00000000000000000000000000001100 T
b00000000000000000000000000001100 U
1V
b00000000000000000000000011110101 Y
b00000000000000000000000011111111 Z
b11111111111111111111111111111000 [
b00000000000000000000000000010100 ]
b11111110011001011001100011100011 ^
b00000000000000000000000000000000 `
b00110 b
b10001 c
#36
0V
#37
b00000000000000000000000011110101 E
b000 F
b000 G
1H
0J
1K
b00000000000000000000000000000000 O
b0010011 P
b000 Q
b11 S
b00000000000000000000000000010000 T
1V
b00000000000000000000000000000000 Z
b00000000000000000000000000000000 [
b00000000000000000000000000001100 ]
b00000000000001011000010100010011 ^
b00000000000000000000000011110101 `
b00000 b
b01010 c
#38
0V
#39
b00000000000000000000000011110101 /
b00000000000000000000000011110110 E
b00000000000000000000000000000001 O
b00000000000000000000000000010100 T
b00000000000000000000000000010001 U
1V
b00000000000000000000000011110101 X
b00000000000000000000000000000001 [
b00000000000000000000000000010000 ]
b00000000000101011000010110010011 ^
b00000000000000000000000011110110 `
b00001 b
b01011 c
#40
0V
#41
b00000000000000000000000011110110 0
b00000000000000000000000000000000 E
b111 F
b011 G
0H
1J
0K
b00000000000000000000000011111111 O
b1100011 P
b001 Q
b01 S
b00000000000000000000000000001100 T
b00000000000000000000000000001100 U
1V
b00000000000000000000000011110110 Y
b00000000000000000000000011111111 Z
b11111111111111111111111111111000 [
b00000000000000000000000000010100 ]
b11111110011001011001100011100011 ^
b00000000000000000000000000000000 `
b00110 b
b10001 c
#42
0V
#43
b00000000000000000000000011110110 E
b000 F
b000 G
1H
0J
1K
b00000000000000000000000000000000 O
b0010011 P
b000 Q
b11 S
b00000000000000000000000000010000 T
1V
b00000000000000000000000000000000 Z
b00000000000000000000000000000000 [
b00000000000000000000000000001100 ]
b00000000000001011000010100010011 ^
b00000000000000000000000011110110 `
b00000 b
b01010 c
#44
0V
#45
b00000000000000000000000011110110 /
b00000000000000000000000011110111 E
b00000000000000000000000000000001 O
b00000000000000000000000000010100 T
b00000000000000000000000000010001 U
1V
b00000000000000000000000011110110 X
b00000000000000000000000000000001 [
b00000000000000000000000000010000 ]
b00000000000101011000010110010011 ^
b00000000000000000000000011110111 `
b00001 b
b01011 c
#46
0V
#47
b00000000000000000000000011110111 0
b00000000000000000000000000000000 E
b111 F
b011 G
0H
1J
0K
b00000000000000000000000011111111 O
b1100011 P
b001 Q
b01 S
b00000000000000000000000000001100 T
b00000000000000000000000000001100 U
1V
b00000000000000000000000011110111 Y
b00000000000000000000000011111111 Z
b11111111111111111111111111111000 [
b00000000000000000000000000010100 ]
b11111110011001011001100011100011 ^
b00000000000000000000000000000000 `
b00110 b
b10001 c
#48
0V
#49
b00000000000000000000000011110111 E
b000 F
b000 G
1H
0J
1K
b00000000000000000000000000000000 O
b0010011 P
b000 Q
b11 S
b00000000000000000000000000010000 T
1V
b00000000000000000000000000000000 Z
b00000000000000000000000000000000 [
b00000000000000000000000000001100 ]
b00000000000001011000010100010011 ^
b00000000000000000000000011110111 `
b00000 b
b01010 c
#50
0V
#51
b00000000000000000000000011110111 /
b00000000000000000000000011111000 E
b00000000000000000000000000000001 O
b00000000000000000000000000010100 T
b00000000000000000000000000010001 U
1V
b00000000000000000000000011110111 X
b00000000000000000000000000000001 [
b00000000000000000000000000010000 ]
b00000000000101011000010110010011 ^
b00000000000000000000000011111000 `
b00001 b
b01011 c
#52
0V
#53
b00000000000000000000000011111000 0
b00000000000000000000000000000000 E
b111 F
b011 G
0H
1J
0K
b00000000000000000000000011111111 O
b1100011 P
b001 Q
b01 S
b00000000000000000000000000001100 T
b00000000000000000000000000001100 U
1V
b00000000000000000000000011111000 Y
b00000000000000000000000011111111 Z
b11111111111111111111111111111000 [
b00000000000000000000000000010100 ]
b11111110011001011001100011100011 ^
b00000000000000000000000000000000 `
b00110 b
b10001 c
#54
0V
#55
b00000000000000000000000011111000 E
b000 F
b000 G
1H
0J
1K
b00000000000000000000000000000000 O
b0010011 P
b000 Q
b11 S
b00000000000000000000000000010000 T
1V
b00000000000000000000000000000000 Z
b00000000000000000000000000000000 [
b00000000000000000000000000001100 ]
b00000000000001011000010100010011 ^
b00000000000000000000000011111000 `
b00000 b
b01010 c
#56
0V
#57
b00000000000000000000000011111000 /
b00000000000000000000000011111001 E
b00000000000000000000000000000001 O
b00000000000000000000000000010100 T
b00000000000000000000000000010001 U
1V
b00000000000000000000000011111000 X
b00000000000000000000000000000001 [
b00000000000000000000000000010000 ]
b00000000000101011000010110010011 ^
b00000000000000000000000011111001 `
b00001 b
b01011 c
#58
0V
#59
b00000000000000000000000011111001 0
b00000000000000000000000000000000 E
b111 F
b011 G
0H
1J
0K
b00000000000000000000000011111111 O
b1100011 P
b001 Q
b01 S
b00000000000000000000000000001100 T
b00000000000000000000000000001100 U
1V
b00000000000000000000000011111001 Y
b00000000000000000000000011111111 Z
b11111111111111111111111111111000 [
b00000000000000000000000000010100 ]
b11111110011001011001100011100011 ^
b00000000000000000000000000000000 `
b00110 b
b10001 c
#60
0V
#61
b00000000000000000000000011111001 E
b000 F
b000 G
1H
0J
1K
b00000000000000000000000000000000 O
b0010011 P
b000 Q
b11 S
b00000000000000000000000000010000 T
1V
b00000000000000000000000000000000 Z
b00000000000000000000000000000000 [
b00000000000000000000000000001100 ]
b00000000000001011000010100010011 ^
b00000000000000000000000011111001 `
b00000 b
b01010 c
#62
0V
#63
b00000000000000000000000011111001 /
b00000000000000000000000011111010 E
b00000000000000000000000000000001 O
b00000000000000000000000000010100 T
b00000000000000000000000000010001 U
1V
b00000000000000000000000011111001 X
b00000000000000000000000000000001 [
b00000000000000000000000000010000 ]
b00000000000101011000010110010011 ^
b00000000000000000000000011111010 `
b00001 b
b01011 c
#64
0V
#65
b00000000000000000000000011111010 0
b00000000000000000000000000000000 E
b111 F
b011 G
0H
1J
0K
b00000000000000000000000011111111 O
b1100011 P
b001 Q
b01 S
b00000000000000000000000000001100 T
b00000000000000000000000000001100 U
1V
b00000000000000000000000011111010 Y
b00000000000000000000000011111111 Z
b11111111111111111111111111111000 [
b00000000000000000000000000010100 ]
b11111110011001011001100011100011 ^
b00000000000000000000000000000000 `
b00110 b
b10001 c
#66
0V
#67
b00000000000000000000000011111010 E
b000 F
b000 G
1H
0J
1K
b00000000000000000000000000000000 O
b0010011 P
b000 Q
b11 S
b00000000000000000000000000010000 T
1V
b00000000000000000000000000000000 Z
b00000000000000000000000000000000 [
b00000000000000000000000000001100 ]
b00000000000001011000010100010011 ^
b00000000000000000000000011111010 `
b00000 b
b01010 c
#68
0V
#69
b00000000000000000000000011111010 /
b00000000000000000000000011111011 E
b00000000000000000000000000000001 O
b00000000000000000000000000010100 T
b00000000000000000000000000010001 U
1V
b00000000000000000000000011111010 X
b00000000000000000000000000000001 [
b00000000000000000000000000010000 ]
b00000000000101011000010110010011 ^
b00000000000000000000000011111011 `
b00001 b
b01011 c
#70
0V
#71
b00000000000000000000000011111011 0
b00000000000000000000000000000000 E
b111 F
b011 G
0H
1J
0K
b00000000000000000000000011111111 O
b1100011 P
b001 Q
b01 S
b00000000000000000000000000001100 T
b00000000000000000000000000001100 U
1V
b00000000000000000000000011111011 Y
b00000000000000000000000011111111 Z
b11111111111111111111111111111000 [
b00000000000000000000000000010100 ]
b11111110011001011001100011100011 ^
b00000000000000000000000000000000 `
b00110 b
b10001 c
#72
0V
#73
b00000000000000000000000011111011 E
b000 F
b000 G
1H
0J
1K
b00000000000000000000000000000000 O
b0010011 P
b000 Q
b11 S
b00000000000000000000000000010000 T
1V
b00000000000000000000000000000000 Z
b00000000000000000000000000000000 [
b00000000000000000000000000001100 ]
b00000000000001011000010100010011 ^
b00000000000000000000000011111011 `
b00000 b
b01010 c
#74
0V
#75
b00000000000000000000000011111011 /
b00000000000000000000000011111100 E
b00000000000000000000000000000001 O
b00000000000000000000000000010100 T
b00000000000000000000000000010001 U
1V
b00000000000000000000000011111011 X
b00000000000000000000000000000001 [
b00000000000000000000000000010000 ]
b00000000000101011000010110010011 ^
b00000000000000000000000011111100 `
b00001 b
b01011 c
#76
0V
#77
b00000000000000000000000011111100 0
b00000000000000000000000000000000 E
b111 F
b011 G
0H
1J
0K
b00000000000000000000000011111111 O
b1100011 P
b001 Q
b01 S
b00000000000000000000000000001100 T
b00000000000000000000000000001100 U
1V
b00000000000000000000000011111100 Y
b00000000000000000000000011111111 Z
b11111111111111111111111111111000 [
b00000000000000000000000000010100 ]
b11111110011001011001100011100011 ^
b00000000000000000000000000000000 `
b00110 b
b10001 c
#78
0V
#79
b00000000000000000000000011111100 E
b000 F
b000 G
1H
0J
1K
b00000000000000000000000000000000 O
b0010011 P
b000 Q
b11 S
b00000000000000000000000000010000 T
1V
b00000000000000000000000000000000 Z
b00000000000000000000000000000000 [
b00000000000000000000000000001100 ]
b00000000000001011000010100010011 ^
b00000000000000000000000011111100 `
b00000 b
b01010 c
#80
0V
#81
b00000000000000000000000011111100 /
b00000000000000000000000011111101 E
b00000000000000000000000000000001 O
b00000000000000000000000000010100 T
b00000000000000000000000000010001 U
1V
b00000000000000000000000011111100 X
b00000000000000000000000000000001 [
b00000000000000000000000000010000 ]
b00000000000101011000010110010011 ^
b00000000000000000000000011111101 `
b00001 b
b01011 c
#82
0V
#83
b00000000000000000000000011111101 0
b00000000000000000000000000000000 E
b111 F
b011 G
0H
1J
0K
b00000000000000000000000011111111 O
b1100011 P
b001 Q
b01 S
b00000000000000000000000000001100 T
b00000000000000000000000000001100 U
1V
b00000000000000000000000011111101 Y
b00000000000000000000000011111111 Z
b11111111111111111111111111111000 [
b00000000000000000000000000010100 ]
b11111110011001011001100011100011 ^
b00000000000000000000000000000000 `
b00110 b
b10001 c
#84
0V
#85
b00000000000000000000000011111101 E
b000 F
b000 G
1H
0J
1K
b00000000000000000000000000000000 O
b0010011 P
b000 Q
b11 S
b00000000000000000000000000010000 T
1V
b00000000000000000000000000000000 Z
b00000000000000000000000000000000 [
b00000000000000000000000000001100 ]
b00000000000001011000010100010011 ^
b00000000000000000000000011111101 `
b00000 b
b01010 c
#86
0V
#87
b00000000000000000000000011111101 /
b00000000000000000000000011111110 E
b00000000000000000000000000000001 O
b00000000000000000000000000010100 T
b00000000000000000000000000010001 U
1V
b00000000000000000000000011111101 X
b00000000000000000000000000000001 [
b00000000000000000000000000010000 ]
b00000000000101011000010110010011 ^
b00000000000000000000000011111110 `
b00001 b
b01011 c
#88
0V
#89
b00000000000000000000000011111110 0
b00000000000000000000000000000000 E
b111 F
b011 G
0H
1J
0K
b00000000000000000000000011111111 O
b1100011 P
b001 Q
b01 S
b00000000000000000000000000001100 T
b00000000000000000000000000001100 U
1V
b00000000000000000000000011111110 Y
b00000000000000000000000011111111 Z
b11111111111111111111111111111000 [
b00000000000000000000000000010100 ]
b11111110011001011001100011100011 ^
b00000000000000000000000000000000 `
b00110 b
b10001 c
#90
0V
#91
b00000000000000000000000011111110 E
b000 F
b000 G
1H
0J
1K
b00000000000000000000000000000000 O
b0010011 P
b000 Q
b11 S
b00000000000000000000000000010000 T
1V
b00000000000000000000000000000000 Z
b00000000000000000000000000000000 [
b00000000000000000000000000001100 ]
b00000000000001011000010100010011 ^
b00000000000000000000000011111110 `
b00000 b
b01010 c
#92
0V
#93
b00000000000000000000000011111110 /
b00000000000000000000000011111111 E
b00000000000000000000000000000001 O
b00000000000000000000000000010100 T
b00000000000000000000000000010001 U
1V
b00000000000000000000000011111110 X
b00000000000000000000000000000001 [
b00000000000000000000000000010000 ]
b00000000000101011000010110010011 ^
b00000000000000000000000011111111 `
b00001 b
b01011 c
#94
0V
#95
b00000000000000000000000011111111 0
b00000000000000000000000000000000 E
b111 F
b011 G
0H
1I
0K
b00000000000000000000000011111111 O
b1100011 P
b001 Q
b01 S
b00000000000000000000000000011000 T
b00000000000000000000000000001100 U
1V
b00000000000000000000000011111111 Y
b00000000000000000000000011111111 Z
b11111111111111111111111111111000 [
b00000000000000000000000000010100 ]
b11111110011001011001100011100011 ^
b00000000000000000000000000000000 `
b00110 b
b10001 c
#96
0V
#97
0I
1J
b00000000000000000000000000000000 O
b00000000000000000000000000001000 T
b00000000000000000000000000001000 U
1V
b00000000000000000000000000000000 Z
b11111111111111111111111111110000 [
b00110 \
b00000000000000000000000000011000 ]
b11111110000000110001000011100011 ^
b00110 a
b00000 b
b00001 c
#98
0V
#99
b00000000000000000000000011110000 E
b000 F
b000 G
1H
0J
1K
b00000000000000000000000011110000 O
b0010011 P
b000 Q
b11 S
b00000000000000000000000000001100 T
b00000000000000000000000011111000 U
1V
b00000000000000000000000000000000 Y
b00000000000000000000000011110000 [
b00000 \
b00000000000000000000000000001000 ]
b00001111000000000000010110010011 ^
b00000000000000000000000011110000 `
b00000 a
b10000 b
b01011 c
#100
0V
#101
b00000000000000000000000011110000 0
b00000000000000000000000000000000 O
b00000000000000000000000000010000 T
b00000000000000000000000000001100 U
1V
b00000000000000000000000011110000 Y
b00000000000000000000000000000000 [
b01011 \
b00000000000000000000000000001100 ]
b00000000000001011000010100010011 ^
b01011 a
b00000 b
b01010 c
#102
0V
#103
b00000000000000000000000011110000 /
b00000000000000000000000011110001 E
b00000000000000000000000000000001 O
b00000000000000000000000000010100 T
b00000000000000000000000000010001 U
1V
b00000000000000000000000011110000 X
b00000000000000000000000000000001 [
b00000000000000000000000000010000 ]
b00000000000101011000010110010011 ^
b00000000000000000000000011110001 `
b00001 b
b01011 c
#104
0V
#105
b00000000000000000000000011110001 0
b00000000000000000000000000000000 E
b111 F
b011 G
0H
1J
0K
b00000000000000000000000011111111 O
b1100011 P
b001 Q
b01 S
b00000000000000000000000000001100 T
b00000000000000000000000000001100 U
1V
b00000000000000000000000011110001 Y
b00000000000000000000000011111111 Z
b11111111111111111111111111111000 [
b00000000000000000000000000010100 ]
b11111110011001011001100011100011 ^
b00000000000000000000000000000000 `
b00110 b
b10001 c
#106
0V
#107
b00000000000000000000000011110001 E
b000 F
b000 G
1H
0J
1K
b00000000000000000000000000000000 O
b0010011 P
b000 Q
b11 S
b00000000000000000000000000010000 T
1V
b00000000000000000000000000000000 Z
b00000000000000000000000000000000 [
b00000000000000000000000000001100 ]
b00000000000001011000010100010011 ^
b00000000000000000000000011110001 `
b00000 b
b01010 c
#108
0V
#109
b00000000000000000000000011110001 /
b00000000000000000000000011110010 E
b00000000000000000000000000000001 O
b00000000000000000000000000010100 T
b00000000000000000000000000010001 U
1V
b00000000000000000000000011110001 X
b00000000000000000000000000000001 [
b00000000000000000000000000010000 ]
b00000000000101011000010110010011 ^
b00000000000000000000000011110010 `
b00001 b
b01011 c
#110
0V
#111
b00000000000000000000000011110010 0
b00000000000000000000000000000000 E
b111 F
b011 G
0H
1J
0K
b00000000000000000000000011111111 O
b1100011 P
b001 Q
b01 S
b00000000000000000000000000001100 T
b00000000000000000000000000001100 U
1V
b00000000000000000000000011110010 Y
b00000000000000000000000011111111 Z
b11111111111111111111111111111000 [
b00000000000000000000000000010100 ]
b11111110011001011001100011100011 ^
b00000000000000000000000000000000 `
b00110 b
b10001 c
#112
0V
#113
b00000000000000000000000011110010 E
b000 F
b000 G
1H
0J
1K
b00000000000000000000000000000000 O
b0010011 P
b000 Q
b11 S
b00000000000000000000000000010000 T
1V
b00000000000000000000000000000000 Z
b00000000000000000000000000000000 [
b00000000000000000000000000001100 ]
b00000000000001011000010100010011 ^
b00000000000000000000000011110010 `
b00000 b
b01010 c
#114
0V
#115
b00000000000000000000000011110010 /
b00000000000000000000000011110011 E
b00000000000000000000000000000001 O
b00000000000000000000000000010100 T
b00000000000000000000000000010001 U
1V
b00000000000000000000000011110010 X
b00000000000000000000000000000001 [
b00000000000000000000000000010000 ]
b00000000000101011000010110010011 ^
b00000000000000000000000011110011 `
b00001 b
b01011 c
#116
0V
