RISC-V-Single-Cycle/whole.vcd
$version Generated by VerilatedVcd $end
$date Tue Dec 13 15:54:55 2022
 $end
$timescale   1ps $end

 $scope module TOP $end
  $var wire 32 2! a0W [31:0] $end
  $var wire  1 0! clk $end
  $var wire  1 1! rst $end
  $var wire  1 /! trigger $end
  $scope module cpu_pipelined $end
   $var wire 32 5! WIDTH [31:0] $end
   $var wire 32 l a0D [31:0] $end
   $var wire 32 > a0E [31:0] $end
   $var wire 32 R a0M [31:0] $end
   $var wire 32 2! a0W [31:0] $end
   $var wire  1 / addupperD $end
   $var wire  1 8 addupperE $end
   $var wire  4 5 aluctrlD [3:0] $end
   $var wire  4 F aluctrlE [3:0] $end
   $var wire 32 I aluresultE [31:0] $end
   $var wire 32 O aluresultM [31:0] $end
   $var wire 32 Z aluresultW [31:0] $end
   $var wire  1 . alusrcD $end
   $var wire  1 9 alusrcE $end
   $var wire  1 0! clk $end
   $var wire  3 6 funct3D [2:0] $end
   $var wire  3 G funct3E [2:0] $end
   $var wire  3 T funct3M [2:0] $end
   $var wire 32 2 immextD [31:0] $end
   $var wire 32 A immextE [31:0] $end
   $var wire 32 ) instrD [31:0] $end
   $var wire 32 & instrF [31:0] $end
   $var wire  1 0 jbmuxD $end
   $var wire  1 < jbmuxE $end
   $var wire  1 - memwriteD $end
   $var wire  1 : memwriteE $end
   $var wire  1 M memwriteM $end
   $var wire  7 3 opcodeD [6:0] $end
   $var wire  7 D opcodeE [6:0] $end
   $var wire 32 ( pcD [31:0] $end
   $var wire 32 B pcE [31:0] $end
   $var wire 32 % pcF [31:0] $end
   $var wire 32 * pcplusfourD [31:0] $end
   $var wire 32 C pcplusfourE [31:0] $end
   $var wire 32 ' pcplusfourF [31:0] $end
   $var wire 32 Q pcplusfourM [31:0] $end
   $var wire 32 [ pcplusfourW [31:0] $end
   $var wire  1 J pcsrcE $end
   $var wire 32 H pctargetE [31:0] $end
   $var wire  1 1 pcwritemuxD $end
   $var wire  1 = pcwritemuxE $end
   $var wire  1 N pcwritemuxM $end
   $var wire  1 X pcwritemuxW $end
   $var wire 32 3! rd1D [31:0] $end
   $var wire 32 ? rd1E [31:0] $end
   $var wire 32 4! rd2D [31:0] $end
   $var wire 32 @ rd2E [31:0] $end
   $var wire  5 4 rdD [4:0] $end
   $var wire  5 E rdE [4:0] $end
   $var wire  5 S rdM [4:0] $end
   $var wire  5 \ rdW [4:0] $end
   $var wire 32 U read_dataM [31:0] $end
   $var wire 32 Y read_dataW [31:0] $end
   $var wire  1 + regwriteD $end
   $var wire  1 7 regwriteE $end
   $var wire  1 K regwriteM $end
   $var wire  1 V regwriteW $end
   $var wire 32 ] resultW [31:0] $end
   $var wire  1 , resultsrcD $end
   $var wire  1 ; resultsrcE $end
   $var wire  1 L resultsrcM $end
   $var wire  1 W resultsrcW $end
   $var wire  1 1! rst $end
   $var wire  1 /! trigger $end
   $var wire 32 P write_dataM [31:0] $end
   $scope module decode $end
    $var wire 32 l a0D [31:0] $end
    $var wire  5 b ad1D [4:0] $end
    $var wire  5 c ad2D [4:0] $end
    $var wire  5 \ ad3D [4:0] $end
    $var wire  1 / addupperD $end
    $var wire  4 5 aluctrlD [3:0] $end
    $var wire  1 . alusrcD $end
    $var wire  1 0! clk $end
    $var wire  3 6 funct3D [2:0] $end
    $var wire  1 _ funct7D $end
    $var wire 32 2 immopD [31:0] $end
    $var wire  3 ` immsrcD [2:0] $end
    $var wire 32 ) instrD [31:0] $end
    $var wire  1 0 jbmuxD $end
    $var wire  1 - memwriteD $end
    $var wire  7 3 opcodeD [6:0] $end
    $var wire  1 1 pcwritemuxD $end
    $var wire 32 3! rd1D [31:0] $end
    $var wire 32 4! rd2D [31:0] $end
    $var wire  5 4 rdD [4:0] $end
    $var wire  1 + regwriteD $end
    $var wire  1 , resultsrcD $end
    $var wire 25 a signextinD [24:0] $end
    $var wire  1 /! triggerD $end
    $var wire 32 ] wd3D [31:0] $end
    $var wire  1 V we3D $end
    $scope module ctrlunitD $end
     $var wire  1 / addupper $end
     $var wire  4 5 aluctrl [3:0] $end
     $var wire  2 d aluop [1:0] $end
     $var wire  1 . alusrc $end
     $var wire  3 6 funct3 [2:0] $end
     $var wire  1 _ funct7 $end
     $var wire  3 ` immsrc [2:0] $end
     $var wire  1 0 jbmux $end
     $var wire  1 - memwrite $end
     $var wire  7 3 opcode [6:0] $end
     $var wire  1 1 pcwritemux $end
     $var wire  1 + regwrite $end
     $var wire  1 , resultsrc $end
    $upscope $end
    $scope module rfD $end
     $var wire 32 7! A_WIDTH [31:0] $end
     $var wire 32 5! D_WIDTH [31:0] $end
     $var wire 32 l a0 [31:0] $end
     $var wire  5 b ad1 [4:0] $end
     $var wire  5 c ad2 [4:0] $end
     $var wire  5 \ ad3 [4:0] $end
     $var wire  1 0! clk $end
     $var wire 32 3! rd1 [31:0] $end
     $var wire 32 4! rd2 [31:0] $end
     $var wire 32 m rf_array(0) [31:0] $end
     $var wire 32 n rf_array(1) [31:0] $end
     $var wire 32 w rf_array(10) [31:0] $end
     $var wire 32 x rf_array(11) [31:0] $end
     $var wire 32 y rf_array(12) [31:0] $end
     $var wire 32 z rf_array(13) [31:0] $end
     $var wire 32 { rf_array(14) [31:0] $end
     $var wire 32 | rf_array(15) [31:0] $end
     $var wire 32 } rf_array(16) [31:0] $end
     $var wire 32 ~ rf_array(17) [31:0] $end
     $var wire 32 !! rf_array(18) [31:0] $end
     $var wire 32 "! rf_array(19) [31:0] $end
     $var wire 32 o rf_array(2) [31:0] $end
     $var wire 32 #! rf_array(20) [31:0] $end
     $var wire 32 $! rf_array(21) [31:0] $end
     $var wire 32 %! rf_array(22) [31:0] $end
     $var wire 32 &! rf_array(23) [31:0] $end
     $var wire 32 '! rf_array(24) [31:0] $end
     $var wire 32 (! rf_array(25) [31:0] $end
     $var wire 32 )! rf_array(26) [31:0] $end
     $var wire 32 *! rf_array(27) [31:0] $end
     $var wire 32 +! rf_array(28) [31:0] $end
     $var wire 32 ,! rf_array(29) [31:0] $end
     $var wire 32 p rf_array(3) [31:0] $end
     $var wire 32 -! rf_array(30) [31:0] $end
     $var wire 32 .! rf_array(31) [31:0] $end
     $var wire 32 q rf_array(4) [31:0] $end
     $var wire 32 r rf_array(5) [31:0] $end
     $var wire 32 s rf_array(6) [31:0] $end
     $var wire 32 t rf_array(7) [31:0] $end
     $var wire 32 u rf_array(8) [31:0] $end
     $var wire 32 v rf_array(9) [31:0] $end
     $var wire  1 /! trigger $end
     $var wire 32 ] wd3 [31:0] $end
     $var wire  1 V we3 $end
     $scope module unnamedblk1 $end
      $var wire 32 # i [31:0] $end
     $upscope $end
    $upscope $end
    $scope module signexD $end
     $var wire 32 2 immop [31:0] $end
     $var wire  3 ` immsrc [2:0] $end
     $var wire 25 a instruction [31:7] $end
    $upscope $end
   $upscope $end
   $scope module execute $end
    $var wire 32 5! D_WIDTH [31:0] $end
    $var wire  1 8 addupper $end
    $var wire  4 F aluctrl [3:0] $end
    $var wire 32 I aluout [31:0] $end
    $var wire  1 9 alusrc $end
    $var wire  1 e eq $end
    $var wire  3 G funct3 [2:0] $end
    $var wire 32 A immop [31:0] $end
    $var wire  1 < jbmux $end
    $var wire 32 H jumpaddress [31:0] $end
    $var wire  7 D opcode [6:0] $end
    $var wire  1 J pcsrc $end
    $var wire 32 B prog_addr [31:0] $end
    $var wire 32 @ regop2 [31:0] $end
    $var wire 32 ? rf_dout1 [31:0] $end
    $var wire 32 f rfpc [31:0] $end
    $scope module alu $end
     $var wire 32 5! D_WIDTH [31:0] $end
     $var wire  4 F aluctrl [3:0] $end
     $var wire 32 f aluop1 [31:0] $end
     $var wire 32 g aluop2 [31:0] $end
     $var wire 32 I aluout [31:0] $end
     $var wire  1 9 alusrc $end
     $var wire  1 e eq $end
     $var wire 32 A immop [31:0] $end
     $var wire 32 @ regop2 [31:0] $end
    $upscope $end
   $upscope $end
   $scope module fetch $end
    $var wire 32 5! A_WIDTH [31:0] $end
    $var wire  1 0! clk $end
    $var wire 32 & dout [31:0] $end
    $var wire 32 H jumpaddress [31:0] $end
    $var wire 32 % pc [31:0] $end
    $var wire 32 ' pc_plus4 [31:0] $end
    $var wire  1 J pcsrc $end
    $var wire  1 1! rst $end
    $scope module instrmem $end
     $var wire 32 5! A_WIDTH [31:0] $end
     $var wire 32 6! D_WIDTH [31:0] $end
     $var wire 32 % address [31:0] $end
     $var wire 32 & dout [31:0] $end
    $upscope $end
    $scope module pcountunit $end
     $var wire 32 5! WIDTH [31:0] $end
     $var wire  1 0! clk $end
     $var wire 32 H jumpaddress [31:0] $end
     $var wire 32 ^ next_pc [31:0] $end
     $var wire 32 % pc [31:0] $end
     $var wire 32 ' pc_plus4 [31:0] $end
     $var wire  1 J pcsrc $end
     $var wire  1 1! rst $end
    $upscope $end
   $upscope $end
   $scope module memory $end
    $var wire 32 5! ADDRESS_WIDTH [31:0] $end
    $var wire 32 5! DATA_WIDTH [31:0] $end
    $var wire 32 i address [31:0] $end
    $var wire  3 T addrmode [2:0] $end
    $var wire  1 0! clk $end
    $var wire 32 k ramin [31:0] $end
    $var wire 32 j ramout [31:0] $end
    $var wire 32 U read_data [31:0] $end
    $var wire  2 h selectbytes [1:0] $end
    $var wire 32 P write_data [31:0] $end
    $var wire  1 M write_enable $end
    $scope module loadmem $end
     $var wire 32 5! D_WIDTH [31:0] $end
     $var wire  3 T addrmode [2:0] $end
     $var wire 32 j ramout [31:0] $end
     $var wire 32 U read_data [31:0] $end
     $var wire  2 h selectbytes [1:0] $end
    $upscope $end
    $scope module ram $end
     $var wire 32 5! ADDRESS_WIDTH [31:0] $end
     $var wire 32 6! DATA_WIDTH [31:0] $end
     $var wire 32 i address [31:0] $end
     $var wire  1 0! clk $end
     $var wire 32 k ramin [31:0] $end
     $var wire 32 j ramout [31:0] $end
     $var wire  1 M write_enable $end
     $scope module unnamedblk1 $end
      $var wire 32 $ i [31:0] $end
     $upscope $end
    $upscope $end
    $scope module storemem $end
     $var wire 32 5! DATA_WIDTH [31:0] $end
     $var wire  3 T addrmode [2:0] $end
     $var wire 32 k ramdin [31:0] $end
     $var wire 32 j ramout [31:0] $end
     $var wire  2 h selectbytes [1:0] $end
     $var wire 32 P write_data [31:0] $end
    $upscope $end
   $upscope $end
  $upscope $end
 $upscope $end
$enddefinitions $end


#0
b00000000000000000000000000000000 #
b00000000000000000000000000000000 $
b00000000000000000000000000000000 %
b00000000000000000000000000000000 &
b00000000000000000000000000000000 '
b00000000000000000000000000000000 (
b00000000000000000000000000000000 )
b00000000000000000000000000000000 *
0+
0,
0-
0.
0/
00
01
b00000000000000000000000000000000 2
b0000000 3
b00000 4
b0000 5
b000 6
07
08
09
0:
0;
0<
0=
b00000000000000000000000000000000 >
b00000000000000000000000000000000 ?
b00000000000000000000000000000000 @
b00000000000000000000000000000000 A
b00000000000000000000000000000000 B
b00000000000000000000000000000000 C
b0000000 D
b00000 E
b0000 F
b000 G
b00000000000000000000000000000000 H
b00000000000000000000000000000000 I
0J
0K
0L
0M
0N
b00000000000000000000000000000000 O
b00000000000000000000000000000000 P
b00000000000000000000000000000000 Q
b00000000000000000000000000000000 R
b00000 S
b000 T
b00000000000000000000000000000000 U
0V
0W
0X
b00000000000000000000000000000000 Y
b00000000000000000000000000000000 Z
b00000000000000000000000000000000 [
b00000 \
b00000000000000000000000000000000 ]
b00000000000000000000000000000000 ^
0_
b000 `
b0000000000000000000000000 a
b00000 b
b00000 c
b00 d
0e
b00000000000000000000000000000000 f
b00000000000000000000000000000000 g
b00 h
b00000000000000000000000000000000 i
b00000000000000000000000000000000 j
b00000000000000000000000000000000 k
b00000000000000000000000000000000 l
b00000000000000000000000000000000 m
b00000000000000000000000000000000 n
b00000000000000000000000000000000 o
b00000000000000000000000000000000 p
b00000000000000000000000000000000 q
b00000000000000000000000000000000 r
b00000000000000000000000000000000 s
b00000000000000000000000000000000 t
b00000000000000000000000000000000 u
b00000000000000000000000000000000 v
b00000000000000000000000000000000 w
b00000000000000000000000000000000 x
b00000000000000000000000000000000 y
b00000000000000000000000000000000 z
b00000000000000000000000000000000 {
b00000000000000000000000000000000 |
b00000000000000000000000000000000 }
b00000000000000000000000000000000 ~
b00000000000000000000000000000000 !!
b00000000000000000000000000000000 "!
b00000000000000000000000000000000 #!
b00000000000000000000000000000000 $!
b00000000000000000000000000000000 %!
b00000000000000000000000000000000 &!
b00000000000000000000000000000000 '!
b00000000000000000000000000000000 (!
b00000000000000000000000000000000 )!
b00000000000000000000000000000000 *!
b00000000000000000000000000000000 +!
b00000000000000000000000000000000 ,!
b00000000000000000000000000000000 -!
b00000000000000000000000000000000 .!
0/!
00!
01!
b00000000000000000000000000000000 2!
b00000000000000000000000000000000 3!
b00000000000000000000000000000000 4!
b00000000000000000000000000100000 5!
b00000000000000000000000000001000 6!
b00000000000000000000000000000101 7!
#1
b00000000000000000000000000100000 #
b00000000000000100000000000000000 $
b00010010001101000101010110110111 &
b00000000000000000000000000000100 ^
b100 `
10!
#2
00!
#3
b00000000000000000000000000000100 %
b11111111000000000000111000110111 &
b00000000000000000000000000001000 '
b00010010001101000101010110110111 )
1+
1.
b00010010001101000101000000000000 2
b0110111 3
b01011 4
b1111 5
b101 6
b00000000000000000000000000001000 ^
b001 `
b0001001000110100010101011 a
b01000 b
b00011 c
b11 d
10!
#4
00!
#5
b00000000000000000000000000001000 %
b00000000000000000000000000010011 &
b00000000000000000000000000001100 '
b00000000000000000000000000000100 (
b11111111000000000000111000110111 )
b00000000000000000000000000001000 *
b11111111000000000000000000000000 2
b11100 4
b000 6
17
19
b00010010001101000101000000000000 A
b0110111 D
b01011 E
b1111 F
b101 G
b00010010001101000101000000000000 H
b00010010001101000101000000000000 I
b00000000000000000000000000001100 ^
1_
b1111111100000000000011100 a
b00000 b
b10000 c
b00010010001101000101000000000000 g
10!
#6
00!
#7
b00000000000000000000000000001100 %
b00000000000000000000000000010000 '
b00000000000000000000000000001000 (
b00000000000000000000000000010011 )
b00000000000000000000000000001100 *
b00000000000000000000000000000000 2
b0010011 3
b00000 4
b0000 5
b11111111000000000000000000000000 A
b00000000000000000000000000000100 B
b00000000000000000000000000001000 C
b11100 E
b000 G
b11111111000000000000000000000100 H
b11111111000000000000000000000000 I
1K
b00010010001101000101000000000000 O
b01011 S
b101 T
b00000000000000000000000000010000 ^
0_
b000 `
b0000000000000000000000000 a
b00000 c
b10 d
b11111111000000000000000000000000 g
b00010010001101000101000000000000 i
10!
#8
00!
#9
b00000000000000000000000000010000 %
b00000001010011100000111000010011 &
b00000000000000000000000000010100 '
b00000000000000000000000000001100 (
b00000000000000000000000000010000 *
b00000000000000000000000000000000 A
b00000000000000000000000000001000 B
b00000000000000000000000000001100 C
b0010011 D
b00000 E
b0000 F
b00000000000000000000000000001000 H
b00000000000000000000000000000000 I
b11111111000000000000000000000000 O
b00000000000000000000000000001000 Q
b11100 S
b000 T
1V
b00010010001101000101000000000000 Z
b01011 \
b00010010001101000101000000000000 ]
b00000000000000000000000000010100 ^
b00000000000000000000000000000000 g
b11111111000000000000000000000000 i
10!
#10
b00010010001101000101000000000000 x
00!
#11
b00000000000000000000000000010100 %
b11111111000000000000011010010111 &
b00000000000000000000000000011000 '
b00000000000000000000000000010000 (
b00000001010011100000111000010011 )
b00000000000000000000000000010100 *
b00000000000000000000000000010100 2
b11100 4
b00000000000000000000000000001100 B
b00000000000000000000000000010000 C
b00000000000000000000000000001100 H
b00000000000000000000000000000000 O
b00000000000000000000000000001100 Q
b00000 S
b11111111000000000000000000000000 Z
b00000000000000000000000000001000 [
b11100 \
b11111111000000000000000000000000 ]
b00000000000000000000000000011000 ^
b0000000101001110000011100 a
b11100 b
b10100 c
b00000000000000000000000000000000 i
10!
#12
b11111111000000000000000000000000 +!
00!
b11111111000000000000000000000000 3!
#13
b00000000000000000000000000011000 %
b00000000000000000000000000010011 &
b00000000000000000000000000011100 '
b00000000000000000000000000010100 (
b11111111000000000000011010010111 )
b00000000000000000000000000011000 *
1/
b11111111000000000000000000000000 2
b0010111 3
b01101 4
b11111111000000000000000000000000 ?
b00000000000000000000000000010100 A
b00000000000000000000000000010000 B
b00000000000000000000000000010100 C
b11100 E
b00000000000000000000000000100100 H
b11111111000000000000000000010100 I
b00000000000000000000000000010000 Q
b00000000000000000000000000000000 Z
b00000000000000000000000000001100 [
b00000 \
b00000000000000000000000000000000 ]
b00000000000000000000000000011100 ^
1_
b001 `
b1111111100000000000001101 a
b00000 b
b10000 c
b00 d
b11111111000000000000000000000000 f
b00000000000000000000000000010100 g
10!
b00000000000000000000000000000000 3!
#14
00!
#15
b00000000000000000000000000011100 %
b00000000000000000000000000100000 '
b00000000000000000000000000011000 (
b00000000000000000000000000010011 )
b00000000000000000000000000011100 *
0/
b00000000000000000000000000000000 2
b0010011 3
b00000 4
18
b00000000000000000000000000000000 ?
b11111111000000000000000000000000 A
b00000000000000000000000000010100 B
b00000000000000000000000000011000 C
b0010111 D
b01101 E
b11111111000000000000000000010100 H
b11111111000000000000000000010100 O
b00000000000000000000000000010100 Q
b11100 S
b00000000000000000000000000010000 [
b00000000000000000000000000100000 ^
0_
b000 `
b0000000000000000000000000 a
b00000 c
b10 d
b00000000000000000000000000010100 f
b11111111000000000000000000000000 g
b11111111000000000000000000010100 i
10!
#16
00!
#17
b00000000000000000000000000100000 %
b00001101110001101001101001100011 &
b00000000000000000000000000100100 '
b00000000000000000000000000011100 (
b00000000000000000000000000100000 *
08
b00000000000000000000000000000000 A
b00000000000000000000000000011000 B
b00000000000000000000000000011100 C
b0010011 D
b00000 E
b00000000000000000000000000011000 H
b00000000000000000000000000000000 I
b00000000000000000000000000011000 Q
b01101 S
b11111111000000000000000000010100 Z
b00000000000000000000000000010100 [
b11100 \
b11111111000000000000000000010100 ]
b00000000000000000000000000100100 ^
b00000000000000000000000000000000 f
b00000000000000000000000000000000 g
10!
#18
b11111111000000000000000000010100 +!
00!
#19
b00000000000000000000000000100100 %
b00001011000000000000000011101111 &
b00000000000000000000000000101000 '
b00000000000000000000000000100000 (
b00001101110001101001101001100011 )
b00000000000000000000000000100100 *
0+
0.
b00000000000000000000000011010100 2
b1100011 3
b10100 4
b0100 5
b001 6
b00000000000000000000000000011100 B
b00000000000000000000000000100000 C
b00000000000000000000000000011100 H
b00000000000000000000000000000000 O
b00000000000000000000000000011100 Q
b00000 S
b00000000000000000000000000011000 [
b01101 \
b00000000000000000000000000101000 ^
b011 `
b0000110111000110100110100 a
b01101 b
b11100 c
b01 d
b00000000000000000000000000000000 i
10!
b11111111000000000000000000010100 4!
#20
b11111111000000000000000000010100 z
00!
b11111111000000000000000000010100 3!
#21
b00000000000000000000000000101000 %
b00001100000001011000001001100011 &
b00000000000000000000000000101100 '
b00000000000000000000000000100100 (
b00001011000000000000000011101111 )
b00000000000000000000000000101000 *
1+
11
b00000000000000000000000010110000 2
b1101111 3
b00001 4
b0000 5
b000 6
07
09
b11111111000000000000000000010100 ?
b11111111000000000000000000010100 @
b00000000000000000000000011010100 A
b00000000000000000000000000100000 B
b00000000000000000000000000100100 C
b1100011 D
b10100 E
b0100 F
b001 G
b00000000000000000000000011110100 H
b00000000000000000000000000100000 Q
b00000000000000000000000000000000 Z
b00000000000000000000000000011100 [
b00000 \
b00000000000000000000000000000000 ]
b00000000000000000000000000101100 ^
b100 `
b0000101100000000000000001 a
b00000 b
b10000 c
b00 d
b11111111000000000000000000010100 f
b11111111000000000000000000010100 g
10!
b00000000000000000000000000000000 3!
b00000000000000000000000000000000 4!
#22
00!
#23
b00000000000000000000000000101100 %
b00001100000000000001000001100011 &
b00000000000000000000000000110000 '
b00000000000000000000000000101000 (
b00001100000001011000001001100011 )
b00000000000000000000000000101100 *
0+
01
b00000000000000000000000011000100 2
b1100011 3
b00100 4
b0100 5
17
1=
b00000000000000000000000000000000 ?
b00000000000000000000000000000000 @
b00000000000000000000000010110000 A
b00000000000000000000000000100100 B
b00000000000000000000000000101000 C
b1101111 D
b00001 E
b0000 F
b000 G
b00000000000000000000000011010100 H
1J
0K
b11111111000000000000000000010100 P
b00000000000000000000000000100100 Q
b10100 S
b001 T
b00000000000000000000000000100000 [
b00000000000000000000000011010100 ^
b011 `
b0000110000000101100000100 a
b01011 b
b00000 c
b01 d
b00000000000000000000000000000000 f
b00000000000000000000000000000000 g
b00000000000000000000000000010100 k
10!
b00010010001101000101000000000000 3!
#24
00!
#25
b00000000000000000000000011010100 %
b00000000000100000000101000010011 &
b00000000000000000000000011011000 '
b00000000000000000000000000000000 (
b00000000000000000000000000000000 )
b00000000000000000000000000000000 *
b00000000000000000000000000000000 2
b0000000 3
b00000 4
b0000 5
07
0=
b00000000000000000000000000000000 A
b00000000000000000000000000000000 B
b00000000000000000000000000000000 C
b0000000 D
b00000 E
b00000000000000000000000000000000 H
0J
1K
1N
b00000000000000000000000000000000 P
b00000000000000000000000000101000 Q
b00001 S
b000 T
0V
b00000000000000000000000000100100 [
b10100 \
b00000000000000000000000011011000 ^
b100 `
b0000000000000000000000000 a
b00000 b
b00 d
b00000000000000000000000000000000 k
10!
b00000000000000000000000000000000 3!
#26
00!
#27
b00000000000000000000000011011000 %
b00000000000000001000000001100111 &
b00000000000000000000000011011100 '
b00000000000000000000000011010100 (
b00000000000100000000101000010011 )
b00000000000000000000000011011000 *
1+
1.
b00000000000000000000000000000001 2
b0010011 3
b10100 4
0K
0N
b00000000000000000000000000000000 Q
b00000 S
1V
1X
b00000000000000000000000000101000 [
b00001 \
b00000000000000000000000000101000 ]
b00000000000000000000000011011100 ^
b000 `
b0000000000010000000010100 a
b00001 c
b10 d
10!
#28
b00000000000000000000000000101000 n
00!
b00000000000000000000000000101000 4!
#29
b00000000000000000000000011011100 %
b00000000000100000000101010010011 &
b00000000000000000000000011100000 '
b00000000000000000000000011011000 (
b00000000000000001000000001100111 )
b00000000000000000000000011011100 *
10
11
b00000000000000001000000000000000 2
b1100111 3
b00000 4
17
19
b00000000000000000000000000101000 @
b00000000000000000000000000000001 A
b00000000000000000000000011010100 B
b00000000000000000000000011011000 C
b0010011 D
b10100 E
b00000000000000000000000011010101 H
b00000000000000000000000000000001 I
0V
0X
b00000000000000000000000000000000 [
b00000 \
b00000000000000000000000000000000 ]
b00000000000000000000000011100000 ^
b100 `
b0000000000000000100000000 a
b00001 b
b00000 c
b00 d
1e
b00000000000000000000000000000001 g
10!
b00000000000000000000000000101000 3!
b00000000000000000000000000000000 4!
#30
00!
#31
b00000000000000000000000011100000 %
b00000000000000001000000001100111 &
b00000000000000000000000011100100 '
b00000000000000000000000011011100 (
b00000000000100000000101010010011 )
b00000000000000000000000011100000 *
00
01
b00000000000000000000000000000001 2
b0010011 3
b10101 4
1<
1=
b00000000000000000000000000101000 ?
b00000000000000000000000000000000 @
b00000000000000001000000000000000 A
b00000000000000000000000011011000 B
b00000000000000000000000011011100 C
b1100111 D
b00000 E
b00000000000000001000000000101000 H
b00000000000000001000000000101000 I
1J
1K
b00000000000000000000000000000001 O
b00000000000000000000000000101000 P
b00000000000000000000000011011000 Q
b10100 S
b00000000000000001000000000101000 ^
b000 `
b0000000000010000000010101 a
b00000 b
b00001 c
b10 d
0e
b00000000000000000000000000101000 f
b00000000000000001000000000000000 g
b01 h
b00000000000000000010100000000000 k
10!
b00000000000000000000000000000000 3!
b00000000000000000000000000101000 4!
#32
00!
#33
b00000000000000001000000000101000 %
b00001100000001011000001001100011 &
b00000000000000001000000000101100 '
b00000000000000000000000000000000 (
b00000000000000000000000000000000 )
b00000000000000000000000000000000 *
0+
0.
b00000000000000000000000000000000 2
b0000000 3
b00000 4
07
09
0<
0=
b00000000000000000000000000000000 ?
b00000000000000000000000000000000 A
b00000000000000000000000000000000 B
b00000000000000000000000000000000 C
b0000000 D
b00000000000000000000000000000000 H
b00000000000000000000000000000000 I
0J
1N
b00000000000000001000000000101000 O
b00000000000000000000000000000000 P
b00000000000000000000000011011100 Q
b00000 S
1V
b00000000000000000000000000000001 Z
b00000000000000000000000011011000 [
b10100 \
b00000000000000000000000000000001 ]
b00000000000000001000000000101100 ^
b100 `
b0000000000000000000000000 a
b00000 c
b00 d
b00000000000000000000000000000000 f
b00000000000000000000000000000000 g
b00 h
b00000000000000001000000000101000 i
b00000000000000000000000000000000 k
10!
b00000000000000000000000000000000 4!
#34
b00000000000000000000000000000001 #!
00!
#35
b00000000000000001000000000101100 %
b00001100000000000001000001100011 &
b00000000000000001000000000110000 '
b00000000000000001000000000101000 (
b00001100000001011000001001100011 )
b00000000000000001000000000101100 *
b00000000000000000000000011000100 2
b1100011 3
b00100 4
b0100 5
0K
0N
b00000000000000000000000000000000 O
b00000000000000000000000000000000 Q
1X
b00000000000000001000000000101000 Z
b00000000000000000000000011011100 [
b00000 \
b00000000000000000000000011011100 ]
b00000000000000001000000000110000 ^
b011 `
b0000110000000101100000100 a
b01011 b
b01 d
b00000000000000000000000000000000 i
10!
b00010010001101000101000000000000 3!
#36
00!
#37
b00000000000000001000000000110000 %
b00001010000001011100111001100011 &
b00000000000000001000000000110100 '
b00000000000000001000000000101100 (
b00001100000000000001000001100011 )
b00000000000000001000000000110000 *
b00000000000000000000000011000000 2
b00000 4
b001 6
b00010010001101000101000000000000 ?
b00000000000000000000000011000100 A
b00000000000000001000000000101000 B
b00000000000000001000000000101100 C
b1100011 D
b00100 E
b0100 F
b00000000000000001000000011101100 H
b00010010001101000101000000000000 I
0V
0X
b00000000000000000000000000000000 Z
b00000000000000000000000000000000 [
b00000000000000000000000000000000 ]
b00000000000000001000000000110100 ^
b0000110000000000000100000 a
b00000 b
1e
b00010010001101000101000000000000 f
10!
b00000000000000000000000000000000 3!
#38
00!
#39
b00000000000000001000000000110100 %
b00001010101100000101110001100011 &
b00000000000000001000000000111000 '
b00000000000000001000000000110000 (
b00001010000001011100111001100011 )
b00000000000000001000000000110100 *
b00000000000000000000000010111100 2
b11100 4
b0010 5
b100 6
b00000000000000000000000000000000 ?
b00000000000000000000000011000000 A
b00000000000000001000000000101100 B
b00000000000000001000000000110000 C
b00000 E
b001 G
b00000000000000000000000000000000 I
b00010010001101000101000000000000 O
b00000000000000001000000000101100 Q
b00100 S
b00000000000000001000000000111000 ^
b0000101000000101110011100 a
b01011 b
0e
b00000000000000000000000000000000 f
b00010010001101000101000000000000 i
10!
b00010010001101000101000000000000 3!
#40
00!
#41
b00000000000000001000000000111000 %
b00001010000001011110101001100011 &
b00000000000000001000000000111100 '
b00000000000000001000000000110100 (
b00001010101100000101110001100011 )
b00000000000000001000000000111000 *
b00000000000000000000000010111000 2
b11000 4
b101 6
b00010010001101000101000000000000 ?
b00000000000000000000000010111100 A
b00000000000000001000000000110000 B
b00000000000000001000000000110100 C
b11100 E
b0010 F
b100 G
b00000000000000000000000000000000 O
b00000000000000001000000000110000 Q
b00000 S
b001 T
b00010010001101000101000000000000 Z
b00000000000000001000000000101100 [
b00100 \
b00010010001101000101000000000000 ]
b00000000000000001000000000111100 ^
b0000101010110000010111000 a
b00000 b
b01011 c
b00010010001101000101000000000000 f
b00000000000000000000000000000000 i
10!
b00000000000000000000000000000000 3!
b00010010001101000101000000000000 4!
#42
00!
#43
b00000000000000001000000000111100 %
b00001010101100000111100001100011 &
b00000000000000001000000001000000 '
b00000000000000001000000000111000 (
b00001010000001011110101001100011 )
b00000000000000001000000000111100 *
b00000000000000000000000010110100 2
b10100 4
b0011 5
b110 6
b00000000000000000000000000000000 ?
b00010010001101000101000000000000 @
b00000000000000000000000010111000 A
b00000000000000001000000000110100 B
b00000000000000001000000000111000 C
b11000 E
b101 G
b00000000000000000000000000000001 I
b00000000000000001000000000110100 Q
b11100 S
b100 T
b00000000000000000000000000000000 Z
b00000000000000001000000000110000 [
b00000 \
b00000000000000000000000000000000 ]
b00000000000000001000000001000000 ^
b0000101000000101111010100 a
b01011 b
b00000 c
1e
b00000000000000000000000000000000 f
b00010010001101000101000000000000 g
10!
b00010010001101000101000000000000 3!
b00000000000000000000000000000000 4!
#44
00!
#45
b00000000000000001000000001000000 %
b00001001110000000000000011101111 &
b00000000000000001000000001000100 '
b00000000000000001000000000111100 (
b00001010101100000111100001100011 )
b00000000000000001000000001000000 *
b00000000000000000000000010110000 2
b10000 4
b111 6
b00010010001101000101000000000000 ?
b00000000000000000000000000000000 @
b00000000000000000000000010110100 A
b00000000000000001000000000111000 B
b00000000000000001000000000111100 C
b10100 E
b0011 F
b110 G
b00000000000000000000000000000000 I
b00000000000000000000000000000001 O
b00010010001101000101000000000000 P
b00000000000000001000000000111000 Q
b11000 S
b101 T
b00000000000000001000000000110100 [
b11100 \
b00000000000000001000000001000100 ^
b0000101010110000011110000 a
b00000 b
b01011 c
0e
b00010010001101000101000000000000 f
b00000000000000000000000000000000 g
b01 h
b00010010001101000101000000000000 k
10!
b00000000000000000000000000000000 3!
b00010010001101000101000000000000 4!
#46
00!
